{
  "version": "1.0.0-*",

  "dependencies": {
    "DataRepository": "1.0.0-*",
    "Microsoft.Extensions.Configuration.Abstractions": "1.0.0",
    "Microsoft.Extensions.Options": "1.1.0",
    "Modles": "1.0.0-*",
    "NETStandard.Library": "1.6.0"
  },

  "frameworks": {
    "netstandard1.6": {
      "imports": "dnxcore50"
    }
  }
}
