--temp-output:C:\Users\bojan\Desktop\Demo petak\ExampleApp\src\Modles\obj\Debug\netstandard1.6\
--out:C:\Users\bojan\Desktop\Demo petak\ExampleApp\src\Modles\bin\Debug\netstandard1.6\Modles.dll
--define:DEBUG
--define:TRACE
--define:NETSTANDARD1_6
--suppress-warning:CS1701
--suppress-warning:CS1702
--suppress-warning:CS1705
--optimize:False
--output-name:Modles
--file-version:1.0.0.0
--version:1.0.0.0
--informational-version:1.0.0
--target-framework:.NETStandard,Version=v1.6
--reference:C:\Users\bojan\.nuget\packages\Microsoft.AspNetCore.Authentication\1.0.0\lib\netstandard1.3\Microsoft.AspNetCore.Authentication.dll
--reference:C:\Users\bojan\.nuget\packages\Microsoft.AspNetCore.Authentication.Cookies\1.0.0\lib\netstandard1.3\Microsoft.AspNetCore.Authentication.Cookies.dll
--reference:C:\Users\bojan\.nuget\packages\Microsoft.AspNetCore.Authorization\1.1.0\lib\netstandard1.3\Microsoft.AspNetCore.Authorization.dll
--reference:C:\Users\bojan\.nuget\packages\Microsoft.AspNetCore.Cryptography.Internal\1.0.0\lib\netstandard1.3\Microsoft.AspNetCore.Cryptography.Internal.dll
--reference:C:\Users\bojan\.nuget\packages\Microsoft.AspNetCore.Cryptography.KeyDerivation\1.0.0\lib\netstandard1.3\Microsoft.AspNetCore.Cryptography.KeyDerivation.dll
--reference:C:\Users\bojan\.nuget\packages\Microsoft.AspNetCore.DataProtection\1.0.0\lib\netstandard1.3\Microsoft.AspNetCore.DataProtection.dll
--reference:C:\Users\bojan\.nuget\packages\Microsoft.AspNetCore.DataProtection.Abstractions\1.0.0\lib\netstandard1.3\Microsoft.AspNetCore.DataProtection.Abstractions.dll
--reference:C:\Users\bojan\.nuget\packages\Microsoft.AspNetCore.Hosting.Abstractions\1.1.0\lib\netstandard1.3\Microsoft.AspNetCore.Hosting.Abstractions.dll
--reference:C:\Users\bojan\.nuget\packages\Microsoft.AspNetCore.Hosting.Server.Abstractions\1.1.0\lib\netstandard1.3\Microsoft.AspNetCore.Hosting.Server.Abstractions.dll
--reference:C:\Users\bojan\.nuget\packages\Microsoft.AspNetCore.Http\1.1.0\lib\netstandard1.3\Microsoft.AspNetCore.Http.dll
--reference:C:\Users\bojan\.nuget\packages\Microsoft.AspNetCore.Http.Abstractions\1.1.0\lib\netstandard1.3\Microsoft.AspNetCore.Http.Abstractions.dll
--reference:C:\Users\bojan\.nuget\packages\Microsoft.AspNetCore.Http.Extensions\1.1.0\lib\netstandard1.3\Microsoft.AspNetCore.Http.Extensions.dll
--reference:C:\Users\bojan\.nuget\packages\Microsoft.AspNetCore.Http.Features\1.1.0\lib\netstandard1.3\Microsoft.AspNetCore.Http.Features.dll
--reference:C:\Users\bojan\.nuget\packages\Microsoft.AspNetCore.Identity\1.0.0\lib\netstandard1.3\Microsoft.AspNetCore.Identity.dll
--reference:C:\Users\bojan\.nuget\packages\Microsoft.AspNetCore.Identity.EntityFrameworkCore\1.0.0\lib\netstandard1.3\Microsoft.AspNetCore.Identity.EntityFrameworkCore.dll
--reference:C:\Users\bojan\.nuget\packages\Microsoft.AspNetCore.Mvc.Abstractions\1.1.0\lib\netstandard1.3\Microsoft.AspNetCore.Mvc.Abstractions.dll
--reference:C:\Users\bojan\.nuget\packages\Microsoft.AspNetCore.Mvc.Core\1.1.0\lib\netstandard1.6\Microsoft.AspNetCore.Mvc.Core.dll
--reference:C:\Users\bojan\.nuget\packages\Microsoft.AspNetCore.ResponseCaching.Abstractions\1.1.0\lib\netstandard1.3\Microsoft.AspNetCore.ResponseCaching.Abstractions.dll
--reference:C:\Users\bojan\.nuget\packages\Microsoft.AspNetCore.Routing\1.1.0\lib\netstandard1.3\Microsoft.AspNetCore.Routing.dll
--reference:C:\Users\bojan\.nuget\packages\Microsoft.AspNetCore.Routing.Abstractions\1.1.0\lib\netstandard1.3\Microsoft.AspNetCore.Routing.Abstractions.dll
--reference:C:\Users\bojan\.nuget\packages\Microsoft.AspNetCore.WebUtilities\1.1.0\lib\netstandard1.3\Microsoft.AspNetCore.WebUtilities.dll
--reference:C:\Users\bojan\.nuget\packages\Microsoft.CSharp\4.3.0\ref\netstandard1.0\Microsoft.CSharp.dll
--reference:C:\Users\bojan\.nuget\packages\Microsoft.DotNet.PlatformAbstractions\1.1.0\lib\netstandard1.3\Microsoft.DotNet.PlatformAbstractions.dll
--reference:C:\Users\bojan\.nuget\packages\Microsoft.EntityFrameworkCore\1.0.0\lib\netstandard1.3\Microsoft.EntityFrameworkCore.dll
--reference:C:\Users\bojan\.nuget\packages\Microsoft.EntityFrameworkCore.Relational\1.0.0\lib\netstandard1.3\Microsoft.EntityFrameworkCore.Relational.dll
--reference:C:\Users\bojan\.nuget\packages\Microsoft.Extensions.Caching.Abstractions\1.0.0\lib\netstandard1.0\Microsoft.Extensions.Caching.Abstractions.dll
--reference:C:\Users\bojan\.nuget\packages\Microsoft.Extensions.Caching.Memory\1.0.0\lib\netstandard1.3\Microsoft.Extensions.Caching.Memory.dll
--reference:C:\Users\bojan\.nuget\packages\Microsoft.Extensions.Configuration.Abstractions\1.1.0\lib\netstandard1.0\Microsoft.Extensions.Configuration.Abstractions.dll
--reference:C:\Users\bojan\.nuget\packages\Microsoft.Extensions.DependencyInjection\1.0.0\lib\netstandard1.1\Microsoft.Extensions.DependencyInjection.dll
--reference:C:\Users\bojan\.nuget\packages\Microsoft.Extensions.DependencyInjection.Abstractions\1.1.0\lib\netstandard1.0\Microsoft.Extensions.DependencyInjection.Abstractions.dll
--reference:C:\Users\bojan\.nuget\packages\Microsoft.Extensions.DependencyModel\1.1.0\lib\netstandard1.6\Microsoft.Extensions.DependencyModel.dll
--reference:C:\Users\bojan\.nuget\packages\Microsoft.Extensions.FileProviders.Abstractions\1.1.0\lib\netstandard1.0\Microsoft.Extensions.FileProviders.Abstractions.dll
--reference:C:\Users\bojan\.nuget\packages\Microsoft.Extensions.Logging\1.0.0\lib\netstandard1.1\Microsoft.Extensions.Logging.dll
--reference:C:\Users\bojan\.nuget\packages\Microsoft.Extensions.Logging.Abstractions\1.1.0\lib\netstandard1.1\Microsoft.Extensions.Logging.Abstractions.dll
--reference:C:\Users\bojan\.nuget\packages\Microsoft.Extensions.ObjectPool\1.1.0\lib\netstandard1.3\Microsoft.Extensions.ObjectPool.dll
--reference:C:\Users\bojan\.nuget\packages\Microsoft.Extensions.Options\1.1.0\lib\netstandard1.0\Microsoft.Extensions.Options.dll
--reference:C:\Users\bojan\.nuget\packages\Microsoft.Extensions.PlatformAbstractions\1.1.0\lib\netstandard1.3\Microsoft.Extensions.PlatformAbstractions.dll
--reference:C:\Users\bojan\.nuget\packages\Microsoft.Extensions.Primitives\1.1.0\lib\netstandard1.0\Microsoft.Extensions.Primitives.dll
--reference:C:\Users\bojan\.nuget\packages\Microsoft.Extensions.WebEncoders\1.0.0\lib\netstandard1.0\Microsoft.Extensions.WebEncoders.dll
--reference:C:\Users\bojan\.nuget\packages\Microsoft.Net.Http.Headers\1.1.0\lib\netstandard1.1\Microsoft.Net.Http.Headers.dll
--reference:C:\Users\bojan\.nuget\packages\Microsoft.Win32.Primitives\4.3.0\ref\netstandard1.3\Microsoft.Win32.Primitives.dll
--reference:C:\Users\bojan\.nuget\packages\Microsoft.Win32.Registry\4.0.0\ref\netstandard1.3\Microsoft.Win32.Registry.dll
--reference:C:\Users\bojan\.nuget\packages\Newtonsoft.Json\9.0.1\lib\netstandard1.0\Newtonsoft.Json.dll
--reference:C:\Users\bojan\.nuget\packages\Remotion.Linq\2.1.1\lib\netstandard1.0\Remotion.Linq.dll
--reference:C:\Users\bojan\.nuget\packages\System.AppContext\4.1.0\ref\netstandard1.6\System.AppContext.dll
--reference:C:\Users\bojan\.nuget\packages\System.Buffers\4.3.0\lib\netstandard1.1\System.Buffers.dll
--reference:C:\Users\bojan\.nuget\packages\System.Collections\4.3.0\ref\netstandard1.3\System.Collections.dll
--reference:C:\Users\bojan\.nuget\packages\System.Collections.Concurrent\4.0.12\ref\netstandard1.3\System.Collections.Concurrent.dll
--reference:C:\Users\bojan\.nuget\packages\System.Collections.Immutable\1.2.0\lib\netstandard1.0\System.Collections.Immutable.dll
--reference:C:\Users\bojan\.nuget\packages\System.Collections.NonGeneric\4.3.0\ref\netstandard1.3\System.Collections.NonGeneric.dll
--reference:C:\Users\bojan\.nuget\packages\System.ComponentModel\4.3.0\ref\netstandard1.0\System.ComponentModel.dll
--reference:C:\Users\bojan\.nuget\packages\System.ComponentModel.Annotations\4.3.0\ref\netstandard1.4\System.ComponentModel.Annotations.dll
--reference:C:\Users\bojan\.nuget\packages\System.ComponentModel.Primitives\4.3.0\ref\netstandard1.0\System.ComponentModel.Primitives.dll
--reference:C:\Users\bojan\.nuget\packages\System.ComponentModel.TypeConverter\4.3.0\ref\netstandard1.5\System.ComponentModel.TypeConverter.dll
--reference:C:\Users\bojan\.nuget\packages\System.Console\4.0.0\ref\netstandard1.3\System.Console.dll
--reference:C:\Users\bojan\.nuget\packages\System.Data.Common\4.1.0\ref\netstandard1.2\System.Data.Common.dll
--reference:C:\Users\bojan\.nuget\packages\System.Diagnostics.Contracts\4.3.0\ref\netstandard1.0\System.Diagnostics.Contracts.dll
--reference:C:\Users\bojan\.nuget\packages\System.Diagnostics.Debug\4.3.0\ref\netstandard1.3\System.Diagnostics.Debug.dll
--reference:C:\Users\bojan\.nuget\packages\System.Diagnostics.DiagnosticSource\4.3.0\lib\netstandard1.3\System.Diagnostics.DiagnosticSource.dll
--reference:C:\Users\bojan\.nuget\packages\System.Diagnostics.Tools\4.0.1\ref\netstandard1.0\System.Diagnostics.Tools.dll
--reference:C:\Users\bojan\.nuget\packages\System.Diagnostics.Tracing\4.3.0\ref\netstandard1.5\System.Diagnostics.Tracing.dll
--reference:C:\Users\bojan\.nuget\packages\System.Dynamic.Runtime\4.3.0\ref\netstandard1.3\System.Dynamic.Runtime.dll
--reference:C:\Users\bojan\.nuget\packages\System.Globalization\4.3.0\ref\netstandard1.3\System.Globalization.dll
--reference:C:\Users\bojan\.nuget\packages\System.Globalization.Calendars\4.0.1\ref\netstandard1.3\System.Globalization.Calendars.dll
--reference:C:\Users\bojan\.nuget\packages\System.Globalization.Extensions\4.3.0\ref\netstandard1.3\System.Globalization.Extensions.dll
--reference:C:\Users\bojan\.nuget\packages\System.Interactive.Async\3.0.0\lib\netstandard1.0\System.Interactive.Async.dll
--reference:C:\Users\bojan\.nuget\packages\System.IO\4.3.0\ref\netstandard1.5\System.IO.dll
--reference:C:\Users\bojan\.nuget\packages\System.IO.Compression\4.1.0\ref\netstandard1.3\System.IO.Compression.dll
--reference:C:\Users\bojan\.nuget\packages\System.IO.Compression.ZipFile\4.0.1\ref\netstandard1.3\System.IO.Compression.ZipFile.dll
--reference:C:\Users\bojan\.nuget\packages\System.IO.FileSystem\4.0.1\ref\netstandard1.3\System.IO.FileSystem.dll
--reference:C:\Users\bojan\.nuget\packages\System.IO.FileSystem.Primitives\4.0.1\ref\netstandard1.3\System.IO.FileSystem.Primitives.dll
--reference:C:\Users\bojan\.nuget\packages\System.Linq\4.3.0\ref\netstandard1.6\System.Linq.dll
--reference:C:\Users\bojan\.nuget\packages\System.Linq.Expressions\4.3.0\ref\netstandard1.6\System.Linq.Expressions.dll
--reference:C:\Users\bojan\.nuget\packages\System.Linq.Queryable\4.0.1\ref\netstandard1.0\System.Linq.Queryable.dll
--reference:C:\Users\bojan\.nuget\packages\System.Net.Http\4.1.0\ref\netstandard1.3\System.Net.Http.dll
--reference:C:\Users\bojan\.nuget\packages\System.Net.Primitives\4.0.11\ref\netstandard1.3\System.Net.Primitives.dll
--reference:C:\Users\bojan\.nuget\packages\System.Net.Sockets\4.1.0\ref\netstandard1.3\System.Net.Sockets.dll
--reference:C:\Users\bojan\.nuget\packages\System.Net.WebSockets\4.3.0\ref\netstandard1.3\System.Net.WebSockets.dll
--reference:C:\Users\bojan\.nuget\packages\System.ObjectModel\4.3.0\ref\netstandard1.3\System.ObjectModel.dll
--reference:C:\Users\bojan\.nuget\packages\System.Reflection\4.3.0\ref\netstandard1.5\System.Reflection.dll
--reference:C:\Users\bojan\.nuget\packages\System.Reflection.Extensions\4.3.0\ref\netstandard1.0\System.Reflection.Extensions.dll
--reference:C:\Users\bojan\.nuget\packages\System.Reflection.Primitives\4.3.0\ref\netstandard1.0\System.Reflection.Primitives.dll
--reference:C:\Users\bojan\.nuget\packages\System.Reflection.TypeExtensions\4.3.0\ref\netstandard1.5\System.Reflection.TypeExtensions.dll
--reference:C:\Users\bojan\.nuget\packages\System.Resources.ResourceManager\4.3.0\ref\netstandard1.0\System.Resources.ResourceManager.dll
--reference:C:\Users\bojan\.nuget\packages\System.Runtime\4.3.0\ref\netstandard1.5\System.Runtime.dll
--reference:C:\Users\bojan\.nuget\packages\System.Runtime.CompilerServices.Unsafe\4.3.0\lib\netstandard1.0\System.Runtime.CompilerServices.Unsafe.dll
--reference:C:\Users\bojan\.nuget\packages\System.Runtime.Extensions\4.3.0\ref\netstandard1.5\System.Runtime.Extensions.dll
--reference:C:\Users\bojan\.nuget\packages\System.Runtime.Handles\4.3.0\ref\netstandard1.3\System.Runtime.Handles.dll
--reference:C:\Users\bojan\.nuget\packages\System.Runtime.InteropServices\4.3.0\ref\netstandard1.5\System.Runtime.InteropServices.dll
--reference:C:\Users\bojan\.nuget\packages\System.Runtime.InteropServices.RuntimeInformation\4.0.0\ref\netstandard1.1\System.Runtime.InteropServices.RuntimeInformation.dll
--reference:C:\Users\bojan\.nuget\packages\System.Runtime.Numerics\4.0.1\ref\netstandard1.1\System.Runtime.Numerics.dll
--reference:C:\Users\bojan\.nuget\packages\System.Runtime.Serialization.Primitives\4.1.1\ref\netstandard1.3\System.Runtime.Serialization.Primitives.dll
--reference:C:\Users\bojan\.nuget\packages\System.Security.Claims\4.3.0\ref\netstandard1.3\System.Security.Claims.dll
--reference:C:\Users\bojan\.nuget\packages\System.Security.Cryptography.Algorithms\4.2.0\ref\netstandard1.6\System.Security.Cryptography.Algorithms.dll
--reference:C:\Users\bojan\.nuget\packages\System.Security.Cryptography.Encoding\4.0.0\ref\netstandard1.3\System.Security.Cryptography.Encoding.dll
--reference:C:\Users\bojan\.nuget\packages\System.Security.Cryptography.Primitives\4.0.0\ref\netstandard1.3\System.Security.Cryptography.Primitives.dll
--reference:C:\Users\bojan\.nuget\packages\System.Security.Cryptography.X509Certificates\4.1.0\ref\netstandard1.4\System.Security.Cryptography.X509Certificates.dll
--reference:C:\Users\bojan\.nuget\packages\System.Security.Principal\4.3.0\ref\netstandard1.0\System.Security.Principal.dll
--reference:C:\Users\bojan\.nuget\packages\System.Security.Principal.Windows\4.0.0\ref\netstandard1.3\System.Security.Principal.Windows.dll
--reference:C:\Users\bojan\.nuget\packages\System.Text.Encoding\4.3.0\ref\netstandard1.3\System.Text.Encoding.dll
--reference:C:\Users\bojan\.nuget\packages\System.Text.Encoding.Extensions\4.0.11\ref\netstandard1.3\System.Text.Encoding.Extensions.dll
--reference:C:\Users\bojan\.nuget\packages\System.Text.Encodings.Web\4.3.0\lib\netstandard1.0\System.Text.Encodings.Web.dll
--reference:C:\Users\bojan\.nuget\packages\System.Text.RegularExpressions\4.3.0\ref\netstandard1.6\System.Text.RegularExpressions.dll
--reference:C:\Users\bojan\.nuget\packages\System.Threading\4.3.0\ref\netstandard1.3\System.Threading.dll
--reference:C:\Users\bojan\.nuget\packages\System.Threading.Tasks\4.3.0\ref\netstandard1.3\System.Threading.Tasks.dll
--reference:C:\Users\bojan\.nuget\packages\System.Threading.Timer\4.0.1\ref\netstandard1.2\System.Threading.Timer.dll
--reference:C:\Users\bojan\.nuget\packages\System.Xml.ReaderWriter\4.0.11\ref\netstandard1.3\System.Xml.ReaderWriter.dll
--reference:C:\Users\bojan\.nuget\packages\System.Xml.XDocument\4.0.11\ref\netstandard1.3\System.Xml.XDocument.dll
C:\Users\bojan\Desktop\Demo petak\ExampleApp\src\Modles\Flights.cs
C:\Users\bojan\Desktop\Demo petak\ExampleApp\src\Modles\MetadataTypeAttribute.cs
C:\Users\bojan\Desktop\Demo petak\ExampleApp\src\Modles\MyOptions.cs
C:\Users\bojan\Desktop\Demo petak\ExampleApp\src\Modles\User.cs
C:\Users\bojan\Desktop\Demo petak\ExampleApp\src\Modles\Properties\AssemblyInfo.cs
